<svg width="26" height="25" viewBox="0 0 26 25" fill="none" xmlns="http://www.w3.org/2000/svg">
<path d="M22.19 3.66348C19.7852 1.25125 16.4576 -0.0486042 13 0.00139025C9.54238 -0.0486042 6.22775 1.25125 3.82302 3.66348C1.3013 5.97573 -0.0505484 9.17537 0.00144586 12.5C-0.0505484 15.8246 1.3013 19.0118 3.81002 21.324C6.21475 23.7487 9.54238 25.0486 13 24.9986C16.4576 25.0486 19.7722 23.7487 22.177 21.3365C24.6987 19.0243 26.0505 15.8246 25.9986 12.5C26.0505 9.17537 24.6987 5.97573 22.19 3.66348ZM19.4993 12.5V19.9992H14.9498V13.7499H11.0502V19.9992H6.50072V12.5H3.90101L13 3.75097L22.7489 12.5H19.4993Z" fill="white"/>
</svg>
